…
This is a long dataset (34,605 observations)! You might like to create a
small dataset with only, say, 200 of the rows to try all your code out
on the smaller dataset first, and then only run the analysis of the full
data after you have experienced everything. One way to do this is to use
a function like `slice_sample(n = ...)` from `{dplyr}`.

``` r
# Randomly sample 200 rows
billboard %>% 
  slice_sample(n = 200)
```

    ## # A tibble: 200 x 5
    ##    title          artist            `overall peak` `weeks on chart` `chart date`
    ##    <chr>          <chr>                      <dbl>            <dbl>        <dbl>
    ##  1 Nickel Song    THE NEW SEEKERS …             81                2     19710320
    ##  2 Cheers (Drink… RIHANNA                        7               18     20111210
    ##  3 Google Eye     THE NASHVILLE TE…            117                3     19641226
    ##  4 Miami          WILL SMITH                    17               21     19990424
    ##  5 Love's Comin'… MELBA MOORE                  104                4     19821127
    ##  6 After All We'… MAXINE BROWN                 114                1     19611127
    ##  7 Iko Iko        THE DIXIE CUPS                20               10     19650605
    ##  8 True To You    RIC OCASEK                    75                8     19870207
    ##  9 The Weight     JACKIE DeSHANNON              55               10     19681012
    ## 10 How Can I For… ELISA FIORILLO                60                8     19880312
    ## # … with 190 more rows
…
``` r
party_songs <- billboard %>% 
  pull("overall peak")


billboard %>% 
  filter(last_date <= 20061231 , last_date >= 20061201) %>%
  filter("overall peak" >= 1)
```

    ## # A tibble: 33 x 5
    ##    title           artist           `overall peak` `weeks on chart` `chart date`
    ##    <chr>           <chr>                     <dbl>            <dbl>        <dbl>
    ##  1 The Carpal Tun… FALL OUT BOY                 81                1     20061230
    ##  2 Chain Hang Low  JIBBS                         7               20     20061230
    ##  3 Let's Ride      THE GAME                     46                5     20061230
    ##  4 I'll Be Home F… JOSH GROBAN                  95                1     20061230
    ##  5 Get Up          CIARA featuring…              7               20     20061223
    ##  6 London Bridge   FERGIE                        1               21     20061223
    ##  7 Mountains       LONESTAR                     77                9     20061223
    ##  8 Tu Recuerdo     RICKY MARTIN fe…             89                2     20061223
    ##  9 The Diary Of J… BREAKING BENJAM…             50               20     20061223
    ## 10 Give It Away    GEORGE STRAIT                35               19     20061223
    ## # … with 23 more rows
…
